{
	"client":{
		"cp_id":"2640052000002264709",
		"product_id":"736430079244615266",
		"client_id":"438445403382219904",
		"client_secret":"B2A77EEAAE44862398F70CD04FDDB7874630CD64548A195422B1CC8D895CF731",
		"app_id":"102801359",
		"package_name":"com.edar.PixelPirateAdventure.huawei",
		"api_key":"CgB6e3x9X8KF+kQeXKs5Juqw0U2KlV1HGHphkXNJjmv09fDWSTZEWCOAor5+iOa7CJ9WVhTQHt7SgYqPqU1qO77u"
	},
	"configuration_version":"1.0"
}