%YAML 1.1
%TAG !u! tag:unity3d.com,2011:
--- !u!114 &11400000
MonoBehaviour:
  m_ObjectHideFlags: 0
  m_CorrespondingSourceObject: {fileID: 0}
  m_PrefabInstance: {fileID: 0}
  m_PrefabAsset: {fileID: 0}
  m_GameObject: {fileID: 0}
  m_Enabled: 1
  m_EditorHideFlags: 0
  m_Script: {fileID: 11500000, guid: 877c9385bac5acc46ae60e300f04c6eb, type: 3}
  m_Name: BronzeChest
  m_EditorClassIdentifier: 
  chestType: 0
  coins: 300
  blueDiamonds: 1
  greenDiamonds: 0
  redDiamonds: 0
