%YAML 1.1
%TAG !u! tag:unity3d.com,2011:
--- !u!114 &11400000
MonoBehaviour:
  m_ObjectHideFlags: 0
  m_CorrespondingSourceObject: {fileID: 0}
  m_PrefabInstance: {fileID: 0}
  m_PrefabAsset: {fileID: 0}
  m_GameObject: {fileID: 0}
  m_Enabled: 1
  m_EditorHideFlags: 0
  m_Script: {fileID: 11500000, guid: 0c6532c31ff97994a855b86f9bcb283c, type: 3}
  m_Name: DontFallTheBall
  m_EditorClassIdentifier: 
  minigameName: Don't drop the ball!
  minigameInstructions: Tap to push up the cannonball
  minigamePrefab: {fileID: 4510768088827465034, guid: b2e97aba12d9ab548b7d5ff0684f3805,
    type: 3}
  coinsToWin: 150
  coinsToWinPerRound: 96000000c80000002c010000f4010000
  timerFinishedWins: 1
  StartMinigameEvent: {fileID: 11400000, guid: 9291e1041c8cba343be51995d6c2ac53, type: 2}
  StartGameEvent: {fileID: 11400000, guid: 664152c80ce6a5545a6665653e64f77f, type: 2}
  StopMinigameEvent: {fileID: 11400000, guid: 8b4e27437e18ad14f8bde15be1c1f018, type: 2}
