%YAML 1.1
%TAG !u! tag:unity3d.com,2011:
--- !u!114 &11400000
MonoBehaviour:
  m_ObjectHideFlags: 0
  m_CorrespondingSourceObject: {fileID: 0}
  m_PrefabInstance: {fileID: 0}
  m_PrefabAsset: {fileID: 0}
  m_GameObject: {fileID: 0}
  m_Enabled: 1
  m_EditorHideFlags: 0
  m_Script: {fileID: 11500000, guid: e2d44865f6daff145a97ddf8f00341d6, type: 3}
  m_Name: Island1Base
  m_EditorClassIdentifier: 
  roundsPlayTime:
  - 15
  - 10
  - 7
  totalRounds: 3
